Patrik Rosa

Bologna:
lat: 44.504729, lng: 11.333056

Ferrara:
lat: 44.837435, lng: 11.612623

Ravenna:
lat: 44.413686, lng: 12.196560

Forli-cesena:
lat: 43.869181, lng: 11.732731

Rimini:
lat: 44.057467, lng: 12.564043

San Marino:
lat: 43.898838, lng: 12.470047